[
    {
        "scope": "http://emis-plan.herokuapp.com:80",
        "method": "get",
        "path": "/v1/permissions?limit=5",
        "body": "",
        "status": 200,
        "response": {
            "data": [
                {
                    "resource": "Permission",
                    "action": "delete",
                    "description": "Delete permission",
                    "wildcard": "permission:delete",
                    "_id": "5c17661c3c9d520004e2b3da",
                    "updatedAt": "2018-12-20T06:59:27.452Z",
                    "createdAt": "2018-12-17T09:02:20.370Z",
                    "tags": [
                        "permission",
                        "delete"
                    ]
                },
                {
                    "resource": "Permission",
                    "action": "download",
                    "description": "Download permission",
                    "wildcard": "permission:download",
                    "_id": "5c17661c3c9d520004e2b3db",
                    "updatedAt": "2018-12-20T06:59:27.470Z",
                    "createdAt": "2018-12-17T09:02:20.377Z",
                    "tags": [
                        "permission",
                        "download"
                    ]
                },
                {
                    "resource": "Feature",
                    "action": "share",
                    "description": "Share feature",
                    "wildcard": "feature:share",
                    "_id": "5c17661c3c9d520004e2b3dc",
                    "updatedAt": "2018-12-20T06:59:27.476Z",
                    "createdAt": "2018-12-17T09:02:20.383Z",
                    "tags": [
                        "feature",
                        "share"
                    ]
                },
                {
                    "resource": "Role",
                    "action": "create",
                    "description": "Create role",
                    "wildcard": "role:create",
                    "_id": "5c17661c3c9d520004e2b3dd",
                    "updatedAt": "2018-12-20T06:59:27.482Z",
                    "createdAt": "2018-12-17T09:02:20.391Z",
                    "tags": [
                        "role",
                        "create"
                    ]
                },
                {
                    "resource": "Role",
                    "action": "print",
                    "description": "Print role",
                    "wildcard": "role:print",
                    "_id": "5c17661c3c9d520004e2b3de",
                    "updatedAt": "2018-12-20T06:59:27.491Z",
                    "createdAt": "2018-12-17T09:02:20.400Z",
                    "tags": [
                        "role",
                        "print"
                    ]
                }
            ],
            "total": 144,
            "size": 5,
            "limit": 5,
            "skip": 0,
            "page": 1,
            "pages": 29,
            "lastModified": "2018-12-20T06:59:28.506Z"
        },
        "rawHeaders": [
            "Server",
            "Cowboy",
            "Connection",
            "close",
            "Access-Control-Allow-Origin",
            "*",
            "X-Dns-Prefetch-Control",
            "off",
            "X-Frame-Options",
            "SAMEORIGIN",
            "X-Download-Options",
            "noopen",
            "X-Content-Type-Options",
            "nosniff",
            "X-Xss-Protection",
            "1; mode=block",
            "Content-Type",
            "application/json; charset=utf-8",
            "Content-Length",
            "1307",
            "Etag",
            "W/\"51b-p/Qg/rVhdtIU+TQlaD8ZrMpJiUY\"",
            "Vary",
            "Accept-Encoding",
            "Date",
            "Thu, 20 Dec 2018 08:26:50 GMT",
            "Via",
            "1.1 vegur"
        ]
    }
]