[
    {
        "scope": "http://emis-plan.herokuapp.com:80",
        "method": "get",
        "path": "/v1/permissions",
        "body": "",
        "status": 200,
        "response": {
            "data": [
                {
                    "resource": "Permission",
                    "action": "delete",
                    "description": "Delete permission",
                    "wildcard": "permission:delete",
                    "_id": "5c17661c3c9d520004e2b3da",
                    "updatedAt": "2018-12-20T06:59:27.452Z",
                    "createdAt": "2018-12-17T09:02:20.370Z",
                    "tags": [
                        "permission",
                        "delete"
                    ]
                },
                {
                    "resource": "Permission",
                    "action": "download",
                    "description": "Download permission",
                    "wildcard": "permission:download",
                    "_id": "5c17661c3c9d520004e2b3db",
                    "updatedAt": "2018-12-20T06:59:27.470Z",
                    "createdAt": "2018-12-17T09:02:20.377Z",
                    "tags": [
                        "permission",
                        "download"
                    ]
                },
                {
                    "resource": "Feature",
                    "action": "share",
                    "description": "Share feature",
                    "wildcard": "feature:share",
                    "_id": "5c17661c3c9d520004e2b3dc",
                    "updatedAt": "2018-12-20T06:59:27.476Z",
                    "createdAt": "2018-12-17T09:02:20.383Z",
                    "tags": [
                        "feature",
                        "share"
                    ]
                },
                {
                    "resource": "Role",
                    "action": "create",
                    "description": "Create role",
                    "wildcard": "role:create",
                    "_id": "5c17661c3c9d520004e2b3dd",
                    "updatedAt": "2018-12-20T06:59:27.482Z",
                    "createdAt": "2018-12-17T09:02:20.391Z",
                    "tags": [
                        "role",
                        "create"
                    ]
                },
                {
                    "resource": "Role",
                    "action": "print",
                    "description": "Print role",
                    "wildcard": "role:print",
                    "_id": "5c17661c3c9d520004e2b3de",
                    "updatedAt": "2018-12-20T06:59:27.491Z",
                    "createdAt": "2018-12-17T09:02:20.400Z",
                    "tags": [
                        "role",
                        "print"
                    ]
                },
                {
                    "resource": "Message",
                    "action": "view",
                    "description": "View message",
                    "wildcard": "message:view",
                    "_id": "5c17661c3c9d520004e2b3df",
                    "updatedAt": "2018-12-20T06:59:27.498Z",
                    "createdAt": "2018-12-17T09:02:20.409Z",
                    "tags": [
                        "message",
                        "view"
                    ]
                },
                {
                    "resource": "Message",
                    "action": "import",
                    "description": "Import message",
                    "wildcard": "message:import",
                    "_id": "5c17661c3c9d520004e2b3e0",
                    "updatedAt": "2018-12-20T06:59:27.504Z",
                    "createdAt": "2018-12-17T09:02:20.421Z",
                    "tags": [
                        "message",
                        "import"
                    ]
                },
                {
                    "resource": "Party",
                    "action": "edit",
                    "description": "Edit party",
                    "wildcard": "party:edit",
                    "_id": "5c17661c3c9d520004e2b3e1",
                    "updatedAt": "2018-12-20T06:59:27.512Z",
                    "createdAt": "2018-12-17T09:02:20.430Z",
                    "tags": [
                        "party",
                        "edit"
                    ]
                },
                {
                    "resource": "Party",
                    "action": "export",
                    "description": "Export party",
                    "wildcard": "party:export",
                    "_id": "5c17661c3c9d520004e2b3e2",
                    "updatedAt": "2018-12-20T06:59:27.521Z",
                    "createdAt": "2018-12-17T09:02:20.440Z",
                    "tags": [
                        "party",
                        "export"
                    ]
                },
                {
                    "resource": "Permission",
                    "action": "view",
                    "description": "View permission",
                    "wildcard": "permission:view",
                    "_id": "5c17661c3c9d520004e2b3e3",
                    "updatedAt": "2018-12-20T06:59:27.530Z",
                    "createdAt": "2018-12-17T09:02:20.504Z",
                    "tags": [
                        "permission",
                        "view"
                    ]
                }
            ],
            "total": 144,
            "size": 10,
            "limit": 10,
            "skip": 0,
            "page": 1,
            "pages": 15,
            "lastModified": "2018-12-20T06:59:28.506Z"
        },
        "rawHeaders": [
            "Server",
            "Cowboy",
            "Connection",
            "close",
            "Access-Control-Allow-Origin",
            "*",
            "X-Dns-Prefetch-Control",
            "off",
            "X-Frame-Options",
            "SAMEORIGIN",
            "X-Download-Options",
            "noopen",
            "X-Content-Type-Options",
            "nosniff",
            "X-Xss-Protection",
            "1; mode=block",
            "Content-Type",
            "application/json; charset=utf-8",
            "Content-Length",
            "2476",
            "Etag",
            "W/\"9ac-B7Xwv2TvuWJK0mYIcatzfpBccdo\"",
            "Vary",
            "Accept-Encoding",
            "Date",
            "Thu, 20 Dec 2018 08:26:51 GMT",
            "Via",
            "1.1 vegur"
        ]
    }
]