[
    {
        "scope": "http://emis-plan.herokuapp.com:80",
        "method": "get",
        "path": "/v1/features",
        "body": "",
        "status": 200,
        "response": {
            "data": [
                {
                    "category": "Boundary",
                    "type": "Administrative",
                    "level": "zone",
                    "name": "This is the patched Feature",
                    "continent": "Africa",
                    "country": "Tanzania",
                    "_id": "5c17661e3c9d520004e2b46a",
                    "updatedAt": "2018-12-20T08:33:27.330Z",
                    "createdAt": "2018-12-17T09:02:22.126Z",
                    "tags": [
                        "boundary",
                        "administrative",
                        "zone",
                        "coastal",
                        "africa",
                        "tanzania",
                        "updated",
                        "feature",
                        "patched"
                    ]
                },
                {
                    "category": "Boundary",
                    "type": "Administrative",
                    "level": "region",
                    "name": "Dodoma",
                    "continent": "Africa",
                    "country": "Tanzania",
                    "_id": "5c17661e3c9d520004e2b46b",
                    "updatedAt": "2018-12-20T06:59:28.606Z",
                    "createdAt": "2018-12-17T09:02:22.132Z",
                    "tags": [
                        "boundary",
                        "administrative",
                        "region",
                        "dodoma",
                        "africa",
                        "tanzania"
                    ]
                },
                {
                    "category": "Boundary",
                    "type": "Administrative",
                    "level": "region",
                    "name": "Pwani",
                    "continent": "Africa",
                    "country": "Tanzania",
                    "_id": "5c17661e3c9d520004e2b46c",
                    "updatedAt": "2018-12-20T06:59:28.613Z",
                    "createdAt": "2018-12-17T09:02:22.140Z",
                    "tags": [
                        "boundary",
                        "administrative",
                        "region",
                        "pwani",
                        "africa",
                        "tanzania"
                    ]
                },
                {
                    "category": "Boundary",
                    "type": "Administrative",
                    "level": "zone",
                    "name": "Central Zone",
                    "continent": "Africa",
                    "country": "Tanzania",
                    "_id": "5c17661e3c9d520004e2b46d",
                    "updatedAt": "2018-12-20T06:59:28.599Z",
                    "createdAt": "2018-12-17T09:02:22.152Z",
                    "tags": [
                        "boundary",
                        "administrative",
                        "zone",
                        "central",
                        "africa",
                        "tanzania"
                    ]
                },
                {
                    "category": "Boundary",
                    "type": "Administrative",
                    "level": "zone",
                    "name": "Western Zone",
                    "continent": "Africa",
                    "country": "Tanzania",
                    "_id": "5c17661e3c9d520004e2b46e",
                    "updatedAt": "2018-12-20T06:59:28.626Z",
                    "createdAt": "2018-12-17T09:02:22.158Z",
                    "tags": [
                        "boundary",
                        "administrative",
                        "zone",
                        "western",
                        "africa",
                        "tanzania"
                    ]
                },
                {
                    "category": "Boundary",
                    "type": "Administrative",
                    "level": "region",
                    "name": "Morogoro",
                    "continent": "Africa",
                    "country": "Tanzania",
                    "_id": "5c17661e3c9d520004e2b46f",
                    "updatedAt": "2018-12-20T06:59:28.635Z",
                    "createdAt": "2018-12-17T09:02:22.165Z",
                    "tags": [
                        "boundary",
                        "administrative",
                        "region",
                        "morogoro",
                        "africa",
                        "tanzania"
                    ]
                },
                {
                    "category": "Boundary",
                    "type": "Administrative",
                    "level": "region",
                    "name": "Ruvuma",
                    "continent": "Africa",
                    "country": "Tanzania",
                    "_id": "5c17661e3c9d520004e2b470",
                    "updatedAt": "2018-12-20T06:59:28.643Z",
                    "createdAt": "2018-12-17T09:02:22.173Z",
                    "tags": [
                        "boundary",
                        "administrative",
                        "region",
                        "ruvuma",
                        "africa",
                        "tanzania"
                    ]
                },
                {
                    "category": "Boundary",
                    "type": "Administrative",
                    "level": "region",
                    "name": "Rukwa",
                    "continent": "Africa",
                    "country": "Tanzania",
                    "_id": "5c17661e3c9d520004e2b471",
                    "updatedAt": "2018-12-20T06:59:28.649Z",
                    "createdAt": "2018-12-17T09:02:22.179Z",
                    "tags": [
                        "boundary",
                        "administrative",
                        "region",
                        "rukwa",
                        "africa",
                        "tanzania"
                    ]
                },
                {
                    "category": "Boundary",
                    "type": "Administrative",
                    "level": "region",
                    "name": "Mara",
                    "continent": "Africa",
                    "country": "Tanzania",
                    "_id": "5c17661e3c9d520004e2b472",
                    "updatedAt": "2018-12-20T06:59:29.528Z",
                    "createdAt": "2018-12-17T09:02:22.185Z",
                    "tags": [
                        "boundary",
                        "administrative",
                        "region",
                        "africa",
                        "tanzania"
                    ]
                },
                {
                    "category": "Boundary",
                    "type": "Administrative",
                    "level": "region",
                    "name": "Geita",
                    "continent": "Africa",
                    "country": "Tanzania",
                    "_id": "5c17661e3c9d520004e2b473",
                    "updatedAt": "2018-12-20T06:59:29.535Z",
                    "createdAt": "2018-12-17T09:02:22.191Z",
                    "tags": [
                        "boundary",
                        "administrative",
                        "region",
                        "geita",
                        "africa",
                        "tanzania"
                    ]
                }
            ],
            "total": 46,
            "size": 10,
            "limit": 10,
            "skip": 0,
            "page": 1,
            "pages": 5,
            "lastModified": "2018-12-20T08:38:44.774Z"
        },
        "rawHeaders": [
            "Server",
            "Cowboy",
            "Connection",
            "close",
            "Access-Control-Allow-Origin",
            "*",
            "X-Dns-Prefetch-Control",
            "off",
            "X-Frame-Options",
            "SAMEORIGIN",
            "X-Download-Options",
            "noopen",
            "X-Content-Type-Options",
            "nosniff",
            "X-Xss-Protection",
            "1; mode=block",
            "Content-Type",
            "application/json; charset=utf-8",
            "Content-Length",
            "3243",
            "Etag",
            "W/\"cab-hx8Widy2mBBH8Fi+aHxGRGyJyfE\"",
            "Vary",
            "Accept-Encoding",
            "Date",
            "Thu, 20 Dec 2018 08:39:31 GMT",
            "Via",
            "1.1 vegur"
        ]
    }
]