{
  "data": [
      {
          "incidentType": {
              "nature": "Natural",
              "family": "Geophysical",
              "code": "NGVA",
              "name": "Volcanic Activity",
              "color": "#90DFF9",
              "_id": "5be5733a266f3200041c7379"
          },
          "boundary": {
              "category": "Boundary",
              "type": "Administrative",
              "level": "ward",
              "name": "Mtombozi",
              "_id": "5bf93f37ef046000044ec652",
              "region": "Morogoro",
              "district": "Morogoro"
          },
          "owner": {
              "type": "Other",
              "name": "John Doe",
              "title": "Ict Officer",
              "email": "johndoe@gmail.com",
              "mobile": "25790903904",
              "_id": "5bea4b2a90a10a0004573f24"
          },
          "description": "In ipsum voluptatem dolores facere.",
          "publishedAt": "2018-07-30T10:41:19.298Z",
          "_id": "5c0dc78664e4c5000479222b",
          "updatedAt": "2018-12-10T01:55:19.095Z",
          "createdAt": "2018-12-10T01:55:19.095Z"
      },
      {
          "incidentType": {
              "nature": "Natural",
              "family": "Geophysical",
              "code": "NGDMM",
              "name": "Dry Mass Movement",
              "color": "#92F49B",
              "_id": "5be5733a266f3200041c737e"
          },
          "boundary": {
              "category": "Boundary",
              "type": "Administrative",
              "level": "ward",
              "name": "Kisima Majongoo",
              "_id": "5bf93f31ef046000044ec276",
              "region": "Mjini Magharibi",
              "district": "Mjini"
          },
          "owner": {
              "type": "Other",
              "name": "Jane Doe",
              "title": "Ict Officer",
              "email": "janedoe@gmail.com",
              "mobile": "25790903904",
              "_id": "5bea4b2a90a10a0004573f23"
          },
          "description": "Voluptatem reprehenderit eos est corrupti sint temporibus nobis.",
          "publishedAt": "2018-05-26T17:44:02.063Z",
          "_id": "5c0dc78664e4c5000479222c",
          "updatedAt": "2018-12-10T01:55:19.096Z",
          "createdAt": "2018-12-10T01:55:19.096Z"
      }
  ],
  "total": 22,
  "size": 2,
  "limit": 2,
  "skip": 0,
  "page": 1,
  "pages": 11,
  "lastModified": "2018-12-10T01:55:19.104Z"
}