[
    {
        "scope": "http://emis-plan.herokuapp.com:80",
        "method": "get",
        "path": "/v1/adjustments",
        "body": "",
        "status": 200,
        "response": {
            "data": [
                {
                    "type": "Addition",
                    "reason": "Demaged",
                    "item": {
                        "type": "Other",
                        "code": "BS",
                        "name": "BAR SOAP",
                        "color": "#D72E29",
                        "_id": "5c17661f3c9d520004e2b4d3"
                    },
                    "stock": "5c1766203c9d520004e2b4f0",
                    "store": {
                        "category": "Building",
                        "type": "Warehouse",
                        "name": "DSM",
                        "_id": "5c17661e3c9d520004e2b485"
                    },
                    "quantity": 77,
                    "cost": 5686,
                    "remarks": "Eaque debitis nulla cupiditate quos rem sint. Vitae qui repellendus. Doloribus quod sed aspernatur nihil.",
                    "party": {
                        "name": "Lally Elias",
                        "email": "lallyelias87@gmail.com",
                        "mobile": "255714095061",
                        "_id": "5c17661e3c9d520004e2b4a7"
                    },
                    "expiredAt": "2018-12-04T16:28:07.942Z",
                    "_id": "5c1766213c9d520004e2b50d",
                    "updatedAt": "2018-12-17T09:02:28.663Z",
                    "createdAt": "2018-12-17T09:02:28.663Z",
                    "tags": [
                        "addition",
                        "demaged",
                        "bar",
                        "soap",
                        "box",
                        "building",
                        "warehouse",
                        "region",
                        "dsm",
                        "africa",
                        "tanzania",
                        "mitigation",
                        "preparedness",
                        "response",
                        "recovery",
                        "lally",
                        "elias",
                        "lykmapipo",
                        "ict",
                        "officer",
                        "abidjan",
                        "lallyelias87",
                        "gmail",
                        "255714095061"
                    ]
                },
                {
                    "type": "Deduction",
                    "reason": "Sold",
                    "item": {
                        "type": "Other",
                        "code": "BFA",
                        "name": "BLANKET FOR ADULTS",
                        "color": "#D72E29",
                        "_id": "5c17661f3c9d520004e2b4b7"
                    },
                    "stock": "5c1766213c9d520004e2b502",
                    "store": {
                        "category": "Building",
                        "type": "Warehouse",
                        "name": "DSM TAMISEMI",
                        "_id": "5c17661e3c9d520004e2b48e"
                    },
                    "quantity": 30,
                    "cost": 6835,
                    "remarks": "Quos sit minus. Illum voluptatem nulla quod molestiae alias veritatis. Iste quidem nemo exercitationem quibusdam. Illum illo animi soluta amet non earum saepe impedit.",
                    "party": {
                        "name": "Benson Maruchu",
                        "email": "benmaruchu@gmail.com",
                        "mobile": "255719818179",
                        "_id": "5c17661e3c9d520004e2b4a3"
                    },
                    "expiredAt": "2018-04-30T09:48:58.012Z",
                    "_id": "5c1766213c9d520004e2b50e",
                    "updatedAt": "2018-12-17T09:02:28.664Z",
                    "createdAt": "2018-12-17T09:02:28.664Z",
                    "tags": [
                        "deduction",
                        "sold",
                        "bfa",
                        "blanket",
                        "adults",
                        "piece",
                        "building",
                        "warehouse",
                        "region",
                        "dsm",
                        "tamisemi",
                        "africa",
                        "tanzania",
                        "mitigation",
                        "preparedness",
                        "response",
                        "recovery",
                        "benson",
                        "maruchu",
                        "benmaruchu",
                        "ict",
                        "officer",
                        "abidjan",
                        "gmail",
                        "255719818179"
                    ]
                },
                {
                    "type": "Deduction",
                    "reason": "Demaged",
                    "item": {
                        "type": "Other",
                        "code": "BFC",
                        "name": "BLANKET FOR CHILDREN",
                        "color": "#D72E29",
                        "_id": "5c17661f3c9d520004e2b4c1"
                    },
                    "stock": "5c17661f3c9d520004e2b4e2",
                    "store": {
                        "category": "Building",
                        "type": "Warehouse",
                        "name": "Shinyanga",
                        "_id": "5c17661e3c9d520004e2b47d"
                    },
                    "quantity": 38,
                    "cost": 8325,
                    "remarks": "Veniam magni aperiam minima quia ducimus amet. Quo ducimus officiis. Cupiditate et eius corporis fugit nihil blanditiis. Aut voluptas illum. Voluptate odit maiores beatae.",
                    "party": {
                        "name": "Nancy Victor",
                        "email": "navish45@gmail.com",
                        "mobile": "255782120252",
                        "_id": "5c17661e3c9d520004e2b4a5"
                    },
                    "expiredAt": "2018-06-01T17:09:34.720Z",
                    "_id": "5c1766213c9d520004e2b50f",
                    "updatedAt": "2018-12-17T09:02:28.664Z",
                    "createdAt": "2018-12-17T09:02:28.664Z",
                    "tags": [
                        "deduction",
                        "demaged",
                        "bfc",
                        "blanket",
                        "children",
                        "piece",
                        "building",
                        "warehouse",
                        "region",
                        "shinyanga",
                        "africa",
                        "tanzania",
                        "mitigation",
                        "preparedness",
                        "response",
                        "recovery",
                        "nancy",
                        "victor",
                        "navish",
                        "ict",
                        "officer",
                        "abidjan",
                        "navish45",
                        "gmail",
                        "255782120252"
                    ]
                },
                {
                    "type": "Deduction",
                    "reason": "Demaged",
                    "item": {
                        "type": "Other",
                        "code": "CBC",
                        "name": "CHALK BOARD COMPAS",
                        "color": "#D72E29",
                        "_id": "5c17661f3c9d520004e2b4ca"
                    },
                    "stock": "5c1766203c9d520004e2b4f9",
                    "store": {
                        "category": "Building",
                        "type": "Warehouse",
                        "name": "Lindi",
                        "_id": "5c17661e3c9d520004e2b475"
                    },
                    "quantity": 98,
                    "cost": 4505,
                    "remarks": "Maxime quis accusamus soluta delectus et. Hic sed quis natus. Autem veritatis reprehenderit ex est eos vel. Consequatur sunt rem quod veniam error.",
                    "party": {
                        "name": "Isaac Kasongoyo",
                        "email": "kasongoyo@gmail.com",
                        "mobile": "255713935778",
                        "_id": "5c17661e3c9d520004e2b4a8"
                    },
                    "expiredAt": "2018-10-20T02:23:17.687Z",
                    "_id": "5c1766213c9d520004e2b510",
                    "updatedAt": "2018-12-17T09:02:28.664Z",
                    "createdAt": "2018-12-17T09:02:28.664Z",
                    "tags": [
                        "deduction",
                        "demaged",
                        "cbc",
                        "chalk",
                        "board",
                        "compas",
                        "piece",
                        "building",
                        "warehouse",
                        "region",
                        "lindi",
                        "africa",
                        "tanzania",
                        "mitigation",
                        "preparedness",
                        "response",
                        "recovery",
                        "isaac",
                        "kasongoyo",
                        "navish",
                        "ict",
                        "officer",
                        "abidjan",
                        "gmail",
                        "255713935778"
                    ]
                },
                {
                    "type": "Deduction",
                    "reason": "Consumed",
                    "item": {
                        "type": "Other",
                        "code": "CBCM(",
                        "name": "CHALK BOARD COMPAS MM (10)",
                        "color": "#D72E29",
                        "_id": "5c17661f3c9d520004e2b4b8"
                    },
                    "stock": "5c17661f3c9d520004e2b4e3",
                    "store": {
                        "category": "Building",
                        "type": "Warehouse",
                        "name": "Dodoma",
                        "_id": "5c17661e3c9d520004e2b495"
                    },
                    "quantity": 43,
                    "cost": 2760,
                    "remarks": "Vel molestias qui aperiam facere quaerat doloremque ut nostrum. Sint consequuntur repudiandae officiis enim vero rerum quia. Officia quia vel et ut. Recusandae distinctio earum ut cumque placeat aut alias. Dolores reprehenderit accusamus tempore cupiditate aliquam deserunt.",
                    "party": {
                        "name": "Edgar Vitus Mlowe",
                        "email": "mloweedgarvitus@gmail.com",
                        "mobile": "255654988047",
                        "_id": "5c17661e3c9d520004e2b4ab"
                    },
                    "expiredAt": "2018-09-30T23:34:20.965Z",
                    "_id": "5c1766213c9d520004e2b511",
                    "updatedAt": "2018-12-17T09:02:28.665Z",
                    "createdAt": "2018-12-17T09:02:28.665Z",
                    "tags": [
                        "deduction",
                        "consumed",
                        "cbcm",
                        "chalk",
                        "board",
                        "compas",
                        "piece",
                        "building",
                        "warehouse",
                        "region",
                        "dodoma",
                        "africa",
                        "tanzania",
                        "mitigation",
                        "preparedness",
                        "response",
                        "recovery",
                        "edgar",
                        "vitus",
                        "mlowe",
                        "edga",
                        "evm",
                        "ict",
                        "officer",
                        "abidjan",
                        "mloweedgarvitus",
                        "gmail",
                        "255654988047"
                    ]
                },
                {
                    "type": "Deduction",
                    "reason": "Demaged",
                    "item": {
                        "type": "Other",
                        "code": "CBD",
                        "name": "CHALK BOARD DOUBLE",
                        "color": "#D72E29",
                        "_id": "5c17661f3c9d520004e2b4bf"
                    },
                    "stock": "5c1766203c9d520004e2b4eb",
                    "store": {
                        "category": "Building",
                        "type": "Warehouse",
                        "name": "Kilimanjaro",
                        "_id": "5c17661e3c9d520004e2b486"
                    },
                    "quantity": 26,
                    "cost": 1820,
                    "remarks": "Asperiores aut voluptatem. Quaerat placeat pariatur mollitia. Dolor necessitatibus rerum in porro fuga. Atque quia vel nesciunt sed doloribus.",
                    "party": {
                        "name": "Beatrice Charles",
                        "email": "charsbeaty@gmail.com",
                        "mobile": "255687902733",
                        "_id": "5c17661e3c9d520004e2b4a2"
                    },
                    "expiredAt": "2018-12-05T15:45:53.372Z",
                    "_id": "5c1766213c9d520004e2b512",
                    "updatedAt": "2018-12-17T09:02:28.665Z",
                    "createdAt": "2018-12-17T09:02:28.665Z",
                    "tags": [
                        "deduction",
                        "demaged",
                        "cbd",
                        "chalk",
                        "board",
                        "double",
                        "piece",
                        "building",
                        "warehouse",
                        "region",
                        "kilimanjaro",
                        "africa",
                        "tanzania",
                        "mitigation",
                        "preparedness",
                        "response",
                        "recovery",
                        "beatrice",
                        "charles",
                        "beaty",
                        "bc",
                        "ict",
                        "officer",
                        "abidjan",
                        "charsbeaty",
                        "gmail",
                        "255687902733"
                    ]
                },
                {
                    "type": "Deduction",
                    "reason": "Transfered",
                    "item": {
                        "type": "Other",
                        "code": "CJ",
                        "name": "COLLAPSIBLE JERRYCAN",
                        "color": "#D72E29",
                        "_id": "5c17661f3c9d520004e2b4c2"
                    },
                    "stock": "5c1766203c9d520004e2b4f1",
                    "store": {
                        "category": "Building",
                        "type": "Warehouse",
                        "name": "Mbeya",
                        "_id": "5c17661e3c9d520004e2b48f"
                    },
                    "quantity": 16,
                    "cost": 9860,
                    "remarks": "Natus qui unde omnis ipsa et quia iure. Consequatur placeat sunt harum eligendi et autem quos minus. Iure ullam ut. Nesciunt iste quasi. Provident ipsam quibusdam tempore labore quod fugit. Ut dolorem doloremque eveniet aperiam qui facere non dolorem.",
                    "party": {
                        "name": "Nyambiri Kimacha",
                        "email": "nyambirik@gmail.com",
                        "mobile": "255621008922",
                        "_id": "5c17661e3c9d520004e2b4a4"
                    },
                    "expiredAt": "2018-10-09T23:09:53.274Z",
                    "_id": "5c1766213c9d520004e2b513",
                    "updatedAt": "2018-12-17T09:02:28.665Z",
                    "createdAt": "2018-12-17T09:02:28.665Z",
                    "tags": [
                        "deduction",
                        "transfered",
                        "cj",
                        "collapsible",
                        "jerrycan",
                        "piece",
                        "building",
                        "warehouse",
                        "region",
                        "mbeya",
                        "africa",
                        "tanzania",
                        "mitigation",
                        "preparedness",
                        "response",
                        "recovery",
                        "nyambiri",
                        "kimacha",
                        "nk",
                        "ict",
                        "officer",
                        "abidjan",
                        "nyambirik",
                        "gmail",
                        "255621008922"
                    ]
                },
                {
                    "type": "Addition",
                    "reason": "Demaged",
                    "item": {
                        "type": "Other",
                        "code": "CAS",
                        "name": "COOKING ALUMINIUM SET",
                        "color": "#D72E29",
                        "_id": "5c17661f3c9d520004e2b4cb"
                    },
                    "stock": "5c1766203c9d520004e2b4fa",
                    "store": {
                        "category": "Building",
                        "type": "Warehouse",
                        "name": "DSM",
                        "_id": "5c17661e3c9d520004e2b485"
                    },
                    "quantity": 48,
                    "cost": 7270,
                    "remarks": "Rem dolorem qui aut nihil atque et. Odit omnis dolor sit aut sunt ipsum culpa soluta. Dolorem nihil commodi sunt.",
                    "party": {
                        "name": "Msilikale Msilanga",
                        "email": "msilikalemsilanga@gmail.com",
                        "mobile": "255765952971",
                        "_id": "5c17661e3c9d520004e2b4a6"
                    },
                    "expiredAt": "2018-10-15T17:39:36.409Z",
                    "_id": "5c1766213c9d520004e2b514",
                    "updatedAt": "2018-12-17T09:02:28.666Z",
                    "createdAt": "2018-12-17T09:02:28.666Z",
                    "tags": [
                        "addition",
                        "demaged",
                        "cas",
                        "cooking",
                        "aluminium",
                        "set",
                        "building",
                        "warehouse",
                        "region",
                        "dsm",
                        "africa",
                        "tanzania",
                        "mitigation",
                        "preparedness",
                        "response",
                        "recovery",
                        "msilikale",
                        "msilanga",
                        "ict",
                        "officer",
                        "abidjan",
                        "msilikalemsilanga",
                        "gmail",
                        "255765952971"
                    ]
                },
                {
                    "type": "Deduction",
                    "reason": "Disposed",
                    "item": {
                        "type": "Other",
                        "code": "DP",
                        "name": "DRAFT PLAY",
                        "color": "#D72E29",
                        "_id": "5c17661f3c9d520004e2b4d4"
                    },
                    "stock": "5c1766213c9d520004e2b503",
                    "store": {
                        "category": "Building",
                        "type": "Warehouse",
                        "name": "DSM TAMISEMI",
                        "_id": "5c17661e3c9d520004e2b48e"
                    },
                    "quantity": 74,
                    "cost": 6878,
                    "remarks": "Est suscipit eum sequi dicta ad id blanditiis veritatis beatae. Nihil adipisci officiis. Eligendi debitis aut eum commodi alias laboriosam. Quia eveniet nam magnam totam. Et ipsa maiores voluptatem aut. Ducimus sequi est reprehenderit facilis.",
                    "party": {
                        "name": "Edward Charles Anderson",
                        "email": "eanderson1@worldbank.org",
                        "mobile": "255765952771",
                        "_id": "5c17661e3c9d520004e2b4a9"
                    },
                    "expiredAt": "2018-11-28T23:04:04.365Z",
                    "_id": "5c1766213c9d520004e2b515",
                    "updatedAt": "2018-12-17T09:02:28.666Z",
                    "createdAt": "2018-12-17T09:02:28.666Z",
                    "tags": [
                        "deduction",
                        "disposed",
                        "dp",
                        "draft",
                        "play",
                        "piece",
                        "building",
                        "warehouse",
                        "region",
                        "dsm",
                        "tamisemi",
                        "africa",
                        "tanzania",
                        "mitigation",
                        "preparedness",
                        "response",
                        "recovery",
                        "edward",
                        "charles",
                        "anderson",
                        "eca",
                        "drm",
                        "specialist",
                        "abidjan",
                        "eanderson1",
                        "worldbank",
                        "255765952771"
                    ]
                },
                {
                    "type": "Deduction",
                    "reason": "Purchased",
                    "item": {
                        "type": "Other",
                        "code": "DBAB2",
                        "name": "DRAWING EX- BOOKS AS BOX 240",
                        "color": "#D72E29",
                        "_id": "5c17661f3c9d520004e2b4b9"
                    },
                    "stock": "5c1766203c9d520004e2b4e4",
                    "store": {
                        "category": "Building",
                        "type": "Warehouse",
                        "name": "Shinyanga",
                        "_id": "5c17661e3c9d520004e2b47d"
                    },
                    "quantity": 57,
                    "cost": 2473,
                    "remarks": "Iste commodi natus. Consequatur ab incidunt quo reprehenderit. Ea soluta totam eum. Ut fugiat in voluptates perferendis dolore atque harum. Autem eum minima repudiandae et nihil rem. Nihil est aut.",
                    "party": {
                        "name": "Richard Senkondo",
                        "email": "richsenkondo@gmail.com",
                        "mobile": "255713507894",
                        "_id": "5c17661e3c9d520004e2b4ac"
                    },
                    "expiredAt": "2018-09-25T04:49:19.583Z",
                    "_id": "5c1766213c9d520004e2b516",
                    "updatedAt": "2018-12-17T09:02:28.666Z",
                    "createdAt": "2018-12-17T09:02:28.666Z",
                    "tags": [
                        "deduction",
                        "purchased",
                        "dbab2",
                        "drawing",
                        "books",
                        "box",
                        "240",
                        "carton",
                        "building",
                        "warehouse",
                        "region",
                        "shinyanga",
                        "africa",
                        "tanzania",
                        "mitigation",
                        "preparedness",
                        "response",
                        "recovery",
                        "richard",
                        "senkondo",
                        "rich",
                        "rs",
                        "drm",
                        "specialist",
                        "abidjan",
                        "richsenkondo",
                        "gmail",
                        "255713507894"
                    ]
                }
            ],
            "total": 215,
            "size": 10,
            "limit": 10,
            "skip": 0,
            "page": 1,
            "pages": 22,
            "lastModified": "2018-12-20T06:59:34.977Z"
        },
        "rawHeaders": [
            "Server",
            "Cowboy",
            "Connection",
            "close",
            "Access-Control-Allow-Origin",
            "*",
            "X-Dns-Prefetch-Control",
            "off",
            "X-Frame-Options",
            "SAMEORIGIN",
            "X-Download-Options",
            "noopen",
            "X-Content-Type-Options",
            "nosniff",
            "X-Xss-Protection",
            "1; mode=block",
            "Content-Type",
            "application/json; charset=utf-8",
            "Content-Length",
            "10718",
            "Etag",
            "W/\"29de-2X0lkfbTAROX+lpe/Nw6Y7J2EKI\"",
            "Vary",
            "Accept-Encoding",
            "Date",
            "Thu, 20 Dec 2018 08:26:25 GMT",
            "Via",
            "1.1 vegur"
        ]
    }
]